{
  "status": 200,
  "headers": {
    "Date": "Thu, 26 Mar 2026 14:59:36 GMT",
    "Content-Type": "application/json",
    "Content-Length": "12124",
    "Connection": "close",
    "server": "istio-envoy",
    "x-envoy-upstream-service-time": "19",
    "x-user-id": "5",
    "x-user-name": "%EC%86%90%EC%84%B1%EC%A4%80",
    "x-user-admin": "true",
    "x-request-id": "f377a1c2-9755-4fed-9892-879e9342405d",
    "vary": "origin, access-control-request-method, access-control-request-headers",
    "access-control-allow-origin": "*"
  },
  "body": {
    "traces": [
      {
        "id": 1776,
        "trace_id": "4c497c23-8a02-4456-b17f-ef4d87f468e6",
        "user_id": 5,
        "interaction_id": "default",
        "execution_io_id": 22728,
        "workflow_id": "workflow_019c35fac73b3a332c2d03a9055cf057c5b150d7",
        "workflow_name": "x2bee 에이전트",
        "node_id": "",
        "node_name": "",
        "status": "completed",
        "model_name": "",
        "provider": "",
        "total_spans": 6,
        "total_tool_calls": 1,
        "total_llm_calls": 2,
        "duration_ms": "20149.49",
        "error_message": null,
        "created_at": "2026-03-26T22:11:19.959792+09:00",
        "updated_at": "2026-03-26T22:11:19.959792+09:00"
      },
      {
        "id": 1660,
        "trace_id": "d452ea39-5787-4438-a40f-994b6d9f7df5",
        "user_id": 5,
        "interaction_id": "workflow_019d1870de7ee22cb897739381096f488bb449a5__3efa55d8-0b61-4c45-93e3-626e56e70e28",
        "execution_io_id": null,
        "workflow_id": "workflow_019d1870de7ee22cb897739381096f488bb449a5",
        "workflow_name": "HR Routing Template",
        "node_id": "",
        "node_name": "",
        "status": "error",
        "model_name": "",
        "provider": "",
        "total_spans": 0,
        "total_tool_calls": 0,
        "total_llm_calls": 0,
        "duration_ms": "27.68",
        "error_message": "ID가 'agents/openai'인 노드 클래스를 찾을 수 없습니다.",
        "created_at": "2026-03-25T18:24:52.918606+09:00",
        "updated_at": "2026-03-25T18:24:52.918606+09:00"
      },
      {
        "id": 1659,
        "trace_id": "222c6789-7ce2-4eed-a447-af0539f04ded",
        "user_id": 5,
        "interaction_id": "workflow_019d1870de7ee22cb897739381096f488bb449a5__3efa55d8-0b61-4c45-93e3-626e56e70e28",
        "execution_io_id": null,
        "workflow_id": "workflow_019d1870de7ee22cb897739381096f488bb449a5",
        "workflow_name": "HR Routing Template",
        "node_id": "",
        "node_name": "",
        "status": "error",
        "model_name": "",
        "provider": "",
        "total_spans": 0,
        "total_tool_calls": 0,
        "total_llm_calls": 0,
        "duration_ms": "28.37",
        "error_message": "ID가 'agents/openai'인 노드 클래스를 찾을 수 없습니다.",
        "created_at": "2026-03-25T18:24:38.627467+09:00",
        "updated_at": "2026-03-25T18:24:38.627467+09:00"
      },
      {
        "id": 1658,
        "trace_id": "28d0b4d4-582d-4ec7-98e2-8b773e15952a",
        "user_id": 5,
        "interaction_id": "workflow_019d1870de7ee22cb897739381096f488bb449a5__3efa55d8-0b61-4c45-93e3-626e56e70e28",
        "execution_io_id": null,
        "workflow_id": "workflow_019d1870de7ee22cb897739381096f488bb449a5",
        "workflow_name": "HR Routing Template",
        "node_id": "",
        "node_name": "",
        "status": "error",
        "model_name": "",
        "provider": "",
        "total_spans": 0,
        "total_tool_calls": 0,
        "total_llm_calls": 0,
        "duration_ms": "33.14",
        "error_message": "ID가 'agents/openai'인 노드 클래스를 찾을 수 없습니다.",
        "created_at": "2026-03-25T18:24:12.226652+09:00",
        "updated_at": "2026-03-25T18:24:12.226652+09:00"
      },
      {
        "id": 1616,
        "trace_id": "717078d0-99db-4d1f-8bdf-0c1528469501",
        "user_id": 5,
        "interaction_id": "workflow_019c35fac73b3a332c2d03a9055cf057c5b150d7__8f802a55-2652-4893-bb32-c46800a5a82d",
        "execution_io_id": 22569,
        "workflow_id": "workflow_019c35fac73b3a332c2d03a9055cf057c5b150d7",
        "workflow_name": "x2bee 에이전트",
        "node_id": "",
        "node_name": "",
        "status": "completed",
        "model_name": "",
        "provider": "",
        "total_spans": 3,
        "total_tool_calls": 0,
        "total_llm_calls": 1,
        "duration_ms": "5337.30",
        "error_message": null,
        "created_at": "2026-03-25T09:23:54.697584+09:00",
        "updated_at": "2026-03-25T09:23:54.697584+09:00"
      },
      {
        "id": 1615,
        "trace_id": "c96c0914-cadd-4d03-a70d-29ba5043d476",
        "user_id": 5,
        "interaction_id": "deploy_workflow_019c35fac73b3a332c2d03a9055cf057c5b150d7_5_1770432758456",
        "execution_io_id": 22568,
        "workflow_id": "workflow_019c35fac73b3a332c2d03a9055cf057c5b150d7",
        "workflow_name": "x2bee 에이전트",
        "node_id": "",
        "node_name": "",
        "status": "completed",
        "model_name": "",
        "provider": "",
        "total_spans": 6,
        "total_tool_calls": 1,
        "total_llm_calls": 2,
        "duration_ms": "16734.34",
        "error_message": null,
        "created_at": "2026-03-25T09:22:12.087184+09:00",
        "updated_at": "2026-03-25T09:22:12.087184+09:00"
      },
      {
        "id": 1614,
        "trace_id": "f5835b79-0ea5-43a2-8799-734041b6367f",
        "user_id": 5,
        "interaction_id": "workflow_019c35fac73b3a332c2d03a9055cf057c5b150d7__8f802a55-2652-4893-bb32-c46800a5a82d",
        "execution_io_id": 22567,
        "workflow_id": "workflow_019c35fac73b3a332c2d03a9055cf057c5b150d7",
        "workflow_name": "x2bee 에이전트",
        "node_id": "",
        "node_name": "",
        "status": "completed",
        "model_name": "",
        "provider": "",
        "total_spans": 3,
        "total_tool_calls": 0,
        "total_llm_calls": 1,
        "duration_ms": "8940.05",
        "error_message": null,
        "created_at": "2026-03-25T09:14:41.152683+09:00",
        "updated_at": "2026-03-25T09:14:41.152683+09:00"
      },
      {
        "id": 1487,
        "trace_id": "52ee5470-f992-4cfd-93b7-75d362d2bc81",
        "user_id": 5,
        "interaction_id": "workflow_019d1870de7ee22cb897739381096f488bb449a5__b63bdd0a-97e3-43c6-afae-8bce6e9234cf",
        "execution_io_id": null,
        "workflow_id": "workflow_019d1870de7ee22cb897739381096f488bb449a5",
        "workflow_name": "HR Routing Template",
        "node_id": "",
        "node_name": "",
        "status": "error",
        "model_name": "",
        "provider": "",
        "total_spans": 0,
        "total_tool_calls": 0,
        "total_llm_calls": 0,
        "duration_ms": "28.36",
        "error_message": "ID가 'agents/openai'인 노드 클래스를 찾을 수 없습니다.",
        "created_at": "2026-03-23T11:07:19.270937+09:00",
        "updated_at": "2026-03-23T11:07:19.270937+09:00"
      },
      {
        "id": 1486,
        "trace_id": "f28b0db2-d10a-49a8-adb1-c7b00a07520e",
        "user_id": 5,
        "interaction_id": "workflow_019d1870de7ee22cb897739381096f488bb449a5__b63bdd0a-97e3-43c6-afae-8bce6e9234cf",
        "execution_io_id": null,
        "workflow_id": "workflow_019d1870de7ee22cb897739381096f488bb449a5",
        "workflow_name": "HR Routing Template",
        "node_id": "",
        "node_name": "",
        "status": "error",
        "model_name": "",
        "provider": "",
        "total_spans": 0,
        "total_tool_calls": 0,
        "total_llm_calls": 0,
        "duration_ms": "30.95",
        "error_message": "ID가 'agents/openai'인 노드 클래스를 찾을 수 없습니다.",
        "created_at": "2026-03-23T11:06:41.540526+09:00",
        "updated_at": "2026-03-23T11:06:41.540526+09:00"
      },
      {
        "id": 1474,
        "trace_id": "38847087-fc18-4a16-86bb-f25618cb4353",
        "user_id": 5,
        "interaction_id": "deploy_workflow_019b9fe988be8c9582c7e504fe7ff533153f5053_5_1770963970131",
        "execution_io_id": null,
        "workflow_id": "workflow_019b9fe988be8c9582c7e504fe7ff533153f5053",
        "workflow_name": "연구소 컨플런스 에이전트",
        "node_id": "",
        "node_name": "",
        "status": "completed",
        "model_name": "",
        "provider": "",
        "total_spans": 15,
        "total_tool_calls": 4,
        "total_llm_calls": 5,
        "duration_ms": "85541.65",
        "error_message": null,
        "created_at": "2026-03-21T20:41:18.252269+09:00",
        "updated_at": "2026-03-21T20:41:18.252269+09:00"
      },
      {
        "id": 1473,
        "trace_id": "9c09e3a1-d00e-46ce-9cd3-16b995255d32",
        "user_id": 5,
        "interaction_id": "deploy_workflow_019b9fe988be8c9582c7e504fe7ff533153f5053_5_1770963970131",
        "execution_io_id": null,
        "workflow_id": "workflow_019b9fe988be8c9582c7e504fe7ff533153f5053",
        "workflow_name": "연구소 컨플런스 에이전트",
        "node_id": "",
        "node_name": "",
        "status": "completed",
        "model_name": "",
        "provider": "",
        "total_spans": 15,
        "total_tool_calls": 4,
        "total_llm_calls": 5,
        "duration_ms": "78810.81",
        "error_message": null,
        "created_at": "2026-03-21T20:39:30.247028+09:00",
        "updated_at": "2026-03-21T20:39:30.247028+09:00"
      },
      {
        "id": 1331,
        "trace_id": "9fec7570-6595-4cda-9315-80008eb32078",
        "user_id": 5,
        "interaction_id": "workflow_019d0483a9458aaceb9c1fd18ea461a22d67ea9b__aee93c3f-2cec-448f-b3fd-f40c0409cbd1",
        "execution_io_id": null,
        "workflow_id": "workflow_019d0483a9458aaceb9c1fd18ea461a22d67ea9b",
        "workflow_name": "Workflow",
        "node_id": "",
        "node_name": "",
        "status": "error",
        "model_name": "",
        "provider": "",
        "total_spans": 0,
        "total_tool_calls": 0,
        "total_llm_calls": 0,
        "duration_ms": "39.50",
        "error_message": "AgentLotteNode.execute() got an unexpected keyword argument 'key_53z3b8265p'",
        "created_at": "2026-03-19T14:39:56.975518+09:00",
        "updated_at": "2026-03-19T14:39:56.975518+09:00"
      },
      {
        "id": 1324,
        "trace_id": "ad60b5b0-70eb-4806-a337-adc9541f81ee",
        "user_id": 5,
        "interaction_id": "workflow_019d0483a9458aaceb9c1fd18ea461a22d67ea9b__aee93c3f-2cec-448f-b3fd-f40c0409cbd1",
        "execution_io_id": null,
        "workflow_id": "workflow_019d0483a9458aaceb9c1fd18ea461a22d67ea9b",
        "workflow_name": "Workflow",
        "node_id": "",
        "node_name": "",
        "status": "error",
        "model_name": "",
        "provider": "",
        "total_spans": 0,
        "total_tool_calls": 0,
        "total_llm_calls": 0,
        "duration_ms": "40.74",
        "error_message": "AgentLotteNode.execute() got an unexpected keyword argument 'workflow_id'",
        "created_at": "2026-03-19T14:16:25.698837+09:00",
        "updated_at": "2026-03-19T14:16:25.698837+09:00"
      },
      {
        "id": 1307,
        "trace_id": "82c8aeec-f0c9-46e7-9e59-15af34911270",
        "user_id": 5,
        "interaction_id": "deploy_workflow_019b9fe988be8c9582c7e504fe7ff533153f5053_5_1770963970131",
        "execution_io_id": null,
        "workflow_id": "workflow_019b9fe988be8c9582c7e504fe7ff533153f5053",
        "workflow_name": "연구소 컨플런스 에이전트",
        "node_id": "",
        "node_name": "",
        "status": "completed",
        "model_name": "",
        "provider": "",
        "total_spans": 12,
        "total_tool_calls": 3,
        "total_llm_calls": 4,
        "duration_ms": "72195.62",
        "error_message": null,
        "created_at": "2026-03-18T16:39:42.840703+09:00",
        "updated_at": "2026-03-18T16:39:42.840703+09:00"
      },
      {
        "id": 1299,
        "trace_id": "b45721b6-5d99-4d88-a596-afed78241ad7",
        "user_id": 5,
        "interaction_id": "deploy_workflow_019b9fe988be8c9582c7e504fe7ff533153f5053_5_1770963970131",
        "execution_io_id": null,
        "workflow_id": "workflow_019b9fe988be8c9582c7e504fe7ff533153f5053",
        "workflow_name": "연구소 컨플런스 에이전트",
        "node_id": "",
        "node_name": "",
        "status": "completed",
        "model_name": "",
        "provider": "",
        "total_spans": 12,
        "total_tool_calls": 3,
        "total_llm_calls": 4,
        "duration_ms": "76110.21",
        "error_message": null,
        "created_at": "2026-03-18T13:01:28.387433+09:00",
        "updated_at": "2026-03-18T13:01:28.387433+09:00"
      },
      {
        "id": 1231,
        "trace_id": "8ddb31ef-8c01-45e9-a370-d2c5edd5deb7",
        "user_id": 5,
        "interaction_id": "workflow_019cb6b08ee9eae92963bac655dece6242025f06__e198b6c8-1b06-4345-a8fc-543521cacb93",
        "execution_io_id": null,
        "workflow_id": "workflow_019cb6b08ee9eae92963bac655dece6242025f06",
        "workflow_name": "Multi-Agent Tool Template",
        "node_id": "",
        "node_name": "",
        "status": "error",
        "model_name": "",
        "provider": "",
        "total_spans": 0,
        "total_tool_calls": 0,
        "total_llm_calls": 0,
        "duration_ms": "105.27",
        "error_message": "ID가 'memory/db_memory_v2'인 노드 클래스를 찾을 수 없습니다.",
        "created_at": "2026-03-17T12:55:20.356178+09:00",
        "updated_at": "2026-03-17T12:55:20.356178+09:00"
      },
      {
        "id": 797,
        "trace_id": "dab245ab-5f20-4a6d-a00c-77d54f663607",
        "user_id": 5,
        "interaction_id": "workflow_019c35fac73b3a332c2d03a9055cf057c5b150d7__1749a02c-303d-4d76-b08d-aac5d382dd93",
        "execution_io_id": null,
        "workflow_id": "workflow_019c35fac73b3a332c2d03a9055cf057c5b150d7",
        "workflow_name": "x2bee 에이전트",
        "node_id": "",
        "node_name": "",
        "status": "completed",
        "model_name": "",
        "provider": "",
        "total_spans": 3,
        "total_tool_calls": 0,
        "total_llm_calls": 1,
        "duration_ms": "9073.21",
        "error_message": null,
        "created_at": "2026-03-11T16:24:22.238984+09:00",
        "updated_at": "2026-03-11T16:24:22.238984+09:00"
      },
      {
        "id": 406,
        "trace_id": "91f2fabd-b75c-426e-9273-0631b5e1adc5",
        "user_id": 5,
        "interaction_id": "deploy_workflow_019c35fac73b3a332c2d03a9055cf057c5b150d7_5_1772782627266",
        "execution_io_id": null,
        "workflow_id": "workflow_019c35fac73b3a332c2d03a9055cf057c5b150d7",
        "workflow_name": "x2bee 에이전트",
        "node_id": "",
        "node_name": "",
        "status": "completed",
        "model_name": "",
        "provider": "",
        "total_spans": 20,
        "total_tool_calls": 7,
        "total_llm_calls": 4,
        "duration_ms": "27336.88",
        "error_message": null,
        "created_at": "2026-03-06T16:40:59.550784+09:00",
        "updated_at": "2026-03-06T16:40:59.550784+09:00"
      },
      {
        "id": 405,
        "trace_id": "a8ee2736-0c83-47e6-bb38-bfd7b00336d4",
        "user_id": 5,
        "interaction_id": "deploy_workflow_019c35fac73b3a332c2d03a9055cf057c5b150d7_5_1772782627266",
        "execution_io_id": null,
        "workflow_id": "workflow_019c35fac73b3a332c2d03a9055cf057c5b150d7",
        "workflow_name": "x2bee 에이전트",
        "node_id": "",
        "node_name": "",
        "status": "completed",
        "model_name": "",
        "provider": "",
        "total_spans": 6,
        "total_tool_calls": 1,
        "total_llm_calls": 2,
        "duration_ms": "17906.40",
        "error_message": null,
        "created_at": "2026-03-06T16:39:11.849864+09:00",
        "updated_at": "2026-03-06T16:39:11.849864+09:00"
      },
      {
        "id": 404,
        "trace_id": "791303e4-4f6b-40d3-98e9-f07d1e0cfe9c",
        "user_id": 5,
        "interaction_id": "deploy_workflow_019c35fac73b3a332c2d03a9055cf057c5b150d7_5_1772782627266",
        "execution_io_id": null,
        "workflow_id": "workflow_019c35fac73b3a332c2d03a9055cf057c5b150d7",
        "workflow_name": "x2bee 에이전트",
        "node_id": "",
        "node_name": "",
        "status": "completed",
        "model_name": "",
        "provider": "",
        "total_spans": 14,
        "total_tool_calls": 4,
        "total_llm_calls": 4,
        "duration_ms": "19521.94",
        "error_message": null,
        "created_at": "2026-03-06T16:37:49.686270+09:00",
        "updated_at": "2026-03-06T16:37:49.686270+09:00"
      }
    ],
    "total": 37,
    "page": 1,
    "page_size": 20,
    "total_pages": 2
  }
}
